<svg width="149" height="62" viewBox="0 0 149 62" fill="none" xmlns="http://www.w3.org/2000/svg">
<rect width="149" height="62" rx="30" fill="#6A6260"/>
<path d="M56.9453 40.5254C56.9453 41.7559 57.7975 42.3984 59.502 42.4531C59.5749 42.4531 59.6113 42.4896 59.6113 42.5625V42.8906C59.6113 42.9635 59.5749 43 59.502 43H50.8066C50.7337 43 50.6973 42.9635 50.6973 42.8906V42.5625C50.6973 42.4896 50.9251 42.4531 51.3809 42.4531C51.8366 42.4531 52.3561 42.3529 52.9395 42.1523C53.8327 41.8607 54.2793 41.3685 54.2793 40.6758V34.1543C54.2793 34.0632 54.2656 34.0039 54.2383 33.9766C54.2109 33.9492 54.1517 33.9355 54.0605 33.9355H43.2871C43.196 33.9355 43.1367 33.9492 43.1094 33.9766C43.082 34.0039 43.0684 34.0632 43.0684 34.1543V40.8125C43.0684 41.9062 43.875 42.4531 45.4883 42.4531C45.5612 42.4531 45.5977 42.4896 45.5977 42.5625V42.8906C45.5977 42.9635 45.5658 43 45.502 43H37.9551C37.8822 43 37.8457 42.9635 37.8457 42.8906V42.5625C37.8457 42.4896 37.9368 42.4531 38.1191 42.4531C39.6413 42.4531 40.4023 41.8014 40.4023 40.498V25.9102C40.4023 24.8438 39.7689 24.2786 38.502 24.2148C38.3105 24.2057 38.2148 24.1647 38.2148 24.0918V23.832C38.2148 23.7591 38.2467 23.7227 38.3105 23.7227H45.1738C45.2467 23.7227 45.2832 23.7591 45.2832 23.832V24.0918C45.2832 24.1465 45.1966 24.1738 45.0234 24.1738C43.7201 24.1738 43.0684 24.8164 43.0684 26.1016V32.418C43.0684 32.5091 43.082 32.5684 43.1094 32.5957C43.1367 32.623 43.196 32.6367 43.2871 32.6367H54.0605C54.1517 32.6367 54.2109 32.623 54.2383 32.5957C54.2656 32.5684 54.2793 32.5091 54.2793 32.418V25.8828C54.2611 25.8008 54.2474 25.7279 54.2383 25.6641C54.2383 25.5911 54.2246 25.4818 54.1973 25.3359C54.1335 25.026 53.8099 24.7754 53.2266 24.584C52.6432 24.3835 51.9824 24.2559 51.2441 24.2012C51.1712 24.2012 51.1348 24.1647 51.1348 24.0918V23.832C51.1348 23.7591 51.1667 23.7227 51.2305 23.7227H59.1191C59.1921 23.7227 59.2285 23.7591 59.2285 23.832V24.0918C59.2285 24.1465 59.1419 24.1738 58.9688 24.1738C57.6198 24.1738 56.9453 24.8164 56.9453 26.1016V40.5254ZM61.457 36.8613C61.457 35.0658 62.0905 33.5254 63.3574 32.2402C64.6335 30.946 66.1602 30.2988 67.9375 30.2988C69.7148 30.2988 71.2598 30.9277 72.5723 32.1855C73.8848 33.4342 74.541 34.9792 74.541 36.8203C74.541 38.6615 73.9167 40.2155 72.668 41.4824C71.4284 42.7402 69.8698 43.3691 67.9922 43.3691C66.1146 43.3691 64.556 42.7311 63.3164 41.4551C62.0768 40.179 61.457 38.6478 61.457 36.8613ZM64.8613 40.375C65.7546 41.8789 66.9714 42.6309 68.5117 42.6309C69.7057 42.6309 70.6172 42.1523 71.2461 41.1953C71.8841 40.2383 72.2031 39.0625 72.2031 37.668C72.2031 36.2734 71.7565 34.8424 70.8633 33.375C69.9792 31.9076 68.7852 31.1738 67.2812 31.1738C66.1784 31.1738 65.3079 31.6523 64.6699 32.6094C64.041 33.5573 63.7266 34.765 63.7266 36.2324C63.7266 37.6908 64.1048 39.0716 64.8613 40.375ZM94.5566 38.6934L94.5293 35.8086C94.5293 34.6328 94.429 33.8079 94.2285 33.334C94.028 32.86 93.7728 32.5046 93.4629 32.2676C93.153 32.0215 92.7337 31.8984 92.2051 31.8984C91.6855 31.8984 90.5781 32.3086 88.8828 33.1289C88.6549 33.2656 88.5365 33.3932 88.5273 33.5117V40.8672C88.5273 41.7878 89.0195 42.3164 90.0039 42.4531C90.4323 42.5169 90.6465 42.6217 90.6465 42.7676C90.6465 42.9043 90.6009 42.9818 90.5098 43H84.4121C84.321 42.9818 84.2754 42.918 84.2754 42.8086C84.2754 42.6354 84.4896 42.5169 84.918 42.4531C85.9023 42.3164 86.3945 41.7878 86.3945 40.8672V34.0586C86.3945 32.6276 85.5104 31.9121 83.7422 31.9121C83.0951 31.9121 82.1973 32.2949 81.0488 33.0605C80.7572 33.252 80.543 33.4297 80.4062 33.5938V40.8672C80.4062 41.7878 80.8984 42.3164 81.8828 42.4531C82.3112 42.5169 82.5254 42.6217 82.5254 42.7676C82.5254 42.9043 82.4798 42.9818 82.3887 43H76.291C76.1999 42.9818 76.1543 42.918 76.1543 42.8086C76.1543 42.6354 76.3685 42.5169 76.7969 42.4531C77.7812 42.3164 78.2734 41.7969 78.2734 40.8945V33.0195C78.2734 32.6367 78.0638 32.3724 77.6445 32.2266C77.4622 32.1628 77.2663 32.1126 77.0566 32.0762C76.847 32.0306 76.6784 31.9896 76.5508 31.9531C76.4323 31.9167 76.3548 31.8848 76.3184 31.8574C76.291 31.821 76.2773 31.7526 76.2773 31.6523C76.2773 31.543 76.3457 31.4518 76.4824 31.3789L79.9688 29.7383C80.0781 29.6836 80.1465 29.6562 80.1738 29.6562C80.3288 29.6562 80.4062 29.7656 80.4062 29.9844V32.2539C80.4154 32.3086 80.4473 32.3359 80.502 32.3359C80.5658 32.3359 80.7161 32.2721 80.9531 32.1445C81.1992 32.0169 81.5182 31.8392 81.9102 31.6113C82.3021 31.3743 82.8171 31.1009 83.4551 30.791C84.1022 30.4811 84.7858 30.3262 85.5059 30.3262C86.6634 30.3262 87.4928 30.8229 87.9941 31.8164C88.1855 32.2174 88.3587 32.3906 88.5137 32.3359C88.6686 32.2721 88.9102 32.1582 89.2383 31.9941C90.013 31.6113 90.7969 31.2376 91.5898 30.873C92.3828 30.5085 93.0391 30.3262 93.5586 30.3262C95.6641 30.3262 96.7168 32.2448 96.7168 36.082L96.5938 40.0742V40.8672C96.5938 41.5781 96.9492 42.043 97.6602 42.2617C97.9609 42.362 98.248 42.4349 98.5215 42.4805C98.804 42.5169 98.9863 42.5534 99.0684 42.5898C99.1595 42.6263 99.2051 42.6992 99.2051 42.8086C99.2051 42.918 99.1595 42.9818 99.0684 43H92.4785C92.3874 42.9818 92.3418 42.918 92.3418 42.8086C92.3418 42.6354 92.556 42.5169 92.9844 42.4531C93.9596 42.3164 94.4473 41.7513 94.4473 40.7578C94.5202 40.3021 94.5566 39.6139 94.5566 38.6934ZM102.418 35.7949C102.263 35.7949 102.186 36.1276 102.186 36.793C102.186 38.2057 102.605 39.3906 103.443 40.3477C104.282 41.3047 105.321 41.7832 106.561 41.7832C107.809 41.7832 109.008 41.2454 110.156 40.1699C110.174 40.1517 110.197 40.1426 110.225 40.1426H110.293C110.348 40.1426 110.398 40.1882 110.443 40.2793C110.498 40.3613 110.548 40.416 110.594 40.4434C109.536 41.7285 108.292 42.6172 106.861 43.1094C106.369 43.2826 105.813 43.3691 105.193 43.3691C104.574 43.3691 103.945 43.2005 103.307 42.8633C102.669 42.5169 102.122 42.0658 101.666 41.5098C100.7 40.3522 100.217 38.9121 100.217 37.1895C100.217 35.4577 100.741 33.8809 101.789 32.459C102.846 31.0371 104.296 30.3262 106.137 30.3262C107.458 30.3262 108.538 30.9186 109.377 32.1035C110.215 33.2793 110.635 34.3138 110.635 35.207C110.635 35.599 110.539 35.7949 110.348 35.7949H102.418ZM102.568 34.4824C102.568 34.6556 102.65 34.7422 102.814 34.7422H107.969C108.206 34.7422 108.324 34.6009 108.324 34.3184C108.324 33.6621 108.028 32.9922 107.436 32.3086C106.852 31.6159 106.21 31.2695 105.508 31.2695C104.824 31.2695 104.2 31.5794 103.635 32.1992C103.079 32.819 102.723 33.5254 102.568 34.3184V34.4824Z" fill="#FFFBFB"/>
</svg>
